Assignment 9: Visualization - Revealing a graph
…
Publish the html file to your Githiub Page.

Submission: Submit the link on Github of the assignment to Canvas

Use the dataset by of covid 19 by WHO at https://covid19.who.int/WHO-COVID-19-global-data.csv. Find the three countries with the most numbers of deaths by Covid-19.

library(gganimate)
library(ggplot2)
library(tidyverse)
library(lubridate)
df <- read_csv("https://covid19.who.int/WHO-COVID-19-global-data.csv")

df %>%filter(Date_reported=='2021-10-17') %>% arrange(-Cumulative_deaths)

## # A tibble: 237 x 8
##    Date_reported Country_code Country      WHO_region New_cases Cumulative_cases
##    <date>        <chr>        <chr>        <chr>          <dbl>            <dbl>
##  1 2021-10-17    US           United Stat~ AMRO           92574         44594297
##  2 2021-10-17    BR           Brazil       AMRO           15239         21627476
##  3 2021-10-17    IN           India        SEARO          14146         34067719
##  4 2021-10-17    MX           Mexico       AMRO            5286          3749860
##  5 2021-10-17    RU           Russian Fed~ EURO           34303          7992687
##  6 2021-10-17    PE           Peru         AMRO             983          2188351
##  7 2021-10-17    ID           Indonesia    SEARO            747          4234758
##  8 2021-10-17    GB           The United ~ EURO           42818          8404473
##  9 2021-10-17    IT           Italy        EURO            2982          4715464
## 10 2021-10-17    CO           Colombia     AMRO            1646          4978689
## # ... with 227 more rows, and 2 more variables: New_deaths <dbl>,
## #   Cumulative_deaths <dbl>
…
Create the new variable (column) death_per_cases recording the number of deaths per cases (Hint: divide cumulative deaths by cumulative cases). What are the three countries with the highest deaths per cases?

df$death_per_cases <- df$Cumulative_deaths/df$Cumulative_cases
df %>% filter(Date_reported=='2021-10-17') %>% arrange(-death_per_cases)

## # A tibble: 235 x 10
##    Date_reported Country_code Country              WHO_region New_cases Cumulative_cases
##    <date>        <chr>        <chr>                <chr>          <dbl>            <dbl>
##  1 2021-10-17    YE           Yemen                EMRO              17             9512
##  2 2021-10-17    PE           Peru                 AMRO             983          2188351
##  3 2021-10-17    MX           Mexico               AMRO            5286          3749860
##  4 2021-10-17    SD           Sudan                EMRO               0            39485
##  5 2021-10-17    EC           Ecuador              AMRO             150           513302
##  6 2021-10-17    SY           Syrian Arab Republic EMRO             340            38705
##  7 2021-10-17    EG           Egypt                EMRO             874           317585
##  8 2021-10-17    SO           Somalia              EMRO               0            21269
##  9 2021-10-17    LR           Liberia              AFRO               0             5807
## 10 2021-10-17    AF           Afghanistan          EMRO              36           155739
## # ... with 225 more rows, and 4 more variables: New_deaths <dbl>,
## #   Cumulative_deaths <dbl>, Months <dbl>, death_per_cases <dbl>
…
